bat/emif_intf_z_testbench.vcd
$date
	Wed Dec 19 08:50:17 2018
$end
$version
	Icarus Verilog
$end
$timescale
	1ps
$end
$scope module emif_intf_z_testbench $end
$var wire 1 ! emif_dpram_wen $end
$var wire 16 " emif_dpram_wdata [15:0] $end
$var wire 1 # emif_dpram_ren $end
$var wire 24 $ emif_dpram_addr [23:0] $end
$var reg 1 % clk $end
$var reg 24 & emif_addr_i [23:0] $end
$var reg 2 ' emif_byten_i [1:0] $end
$var reg 1 ( emif_cen_i $end
$var reg 16 ) emif_data_i [15:0] $end
$var reg 1 * emif_oen_i $end
$var reg 1 + emif_wen_i $end
$var reg 1 , rst_n $end
$scope module u_emif_intf_z $end
$var wire 1 % clk_100m $end
$var wire 24 - emif_addr_i [23:0] $end
$var wire 2 . emif_byten_i [1:0] $end
$var wire 1 ( emif_cen_i $end
$var wire 16 / emif_data_i [15:0] $end
$var wire 1 * emif_oen_i $end
$var wire 1 + emif_wen_i $end
$var wire 1 , rst_n $end
$var reg 24 0 emif_addr_d0 [23:0] $end
$var reg 24 1 emif_addr_d1 [23:0] $end
$var reg 24 2 emif_addr_d2 [23:0] $end
$var reg 2 3 emif_byten_d0 [1:0] $end
$var reg 2 4 emif_byten_d1 [1:0] $end
$var reg 2 5 emif_byten_d2 [1:0] $end
$var reg 1 6 emif_cen_d0 $end
$var reg 1 7 emif_cen_d1 $end
$var reg 16 8 emif_data_d0 [15:0] $end
$var reg 16 9 emif_data_d1 [15:0] $end
$var reg 24 : emif_dpram_addr [23:0] $end
$var reg 24 ; emif_dpram_addr0 [23:0] $end
$var reg 1 # emif_dpram_ren $end
$var reg 1 < emif_dpram_ren0 $end
$var reg 16 = emif_dpram_wdata [15:0] $end
$var reg 16 > emif_dpram_wdata0 [15:0] $end
$var reg 1 ! emif_dpram_wen $end
$var reg 1 ? emif_dpram_wen0 $end
$var reg 1 @ emif_oen_d0 $end
$var reg 1 A emif_oen_d1 $end
$var reg 1 B emif_oen_d2 $end
$var reg 1 C emif_wen_d0 $end
$var reg 1 D emif_wen_d1 $end
$var reg 1 E emif_wen_d2 $end
$upscope $end
$upscope $end
$enddefinitions $end
#0
$dumpvars
1E
1D
1C
1B
1A
1@
0?
b0 >
bx =
0<
b0 ;
bx :
b0 9
b0 8
17
16
b11 5
b11 4
b11 3
b0 2
b0 1
b0 0
b0 /
b11 .
b0 -
0,
1+
1*
b0 )
1(
b11 '
b0 &
1%
bx $
x#
bx "
x!
$end
#1000
0%
#2000
b0 "
b0 =
0!
b0 $
b0 :
0#
1%
#3000
0%
#4000
1%
#5000
0%
#6000
1%
#7000
0%
#8000
1%
#9000
0%
#10000
1%
#11000
0%
#12000
1%
#13000
0%
#14000
1%
#15000
0%
#16000
1%
#17000
0%
#18000
1%
#19000
0%
#20000
1%
#21000
0%
#22000
1%
#23000
0%
#24000
1%
#25000
0%
#26000
1%
#27000
0%
#28000
1%
#29000
0%
#30000
1%
#31000
0%
#32000
1%
#33000
0%
#34000
1%
#35000
0%
#36000
1%
#37000
0%
#38000
1%
#39000
0%
#40000
1%
#41000
0%
#42000
1%
#43000
0%
#44000
1%
#45000
0%
#46000
1%
#47000
0%
#48000
1%
#49000
0%
#50000
1%
#51000
0%
#52000
1%
#53000
0%
#54000
1%
#55000
0%
#56000
1%
#57000
0%
#58000
1%
#59000
0%
#60000
1%
#61000
0%
#62000
1%
#63000
0%
#64000
1%
#65000
0%
#66000
1%
#67000
0%
#68000
1%
#69000
0%
#70000
1%
#71000
0%
#72000
1%
#73000
0%
#74000
1%
#75000
0%
#76000
1%
#77000
0%
#78000
1%
#79000
0%
#80000
1%
#81000
0%
#82000
1%
#83000
0%
#84000
1%
#85000
0%
#86000
1%
#87000
0%
#88000
1%
#89000
0%
#90000
1%
#91000
0%
#92000
1%
#93000
0%
#94000
1%
#95000
0%
#96000
1%
#97000
0%
#98000
1%
#99000
0%
#100000
1%
#101000
0%
#102000
1%
#103000
0%
#104000
1%
#105000
0%
#106000
1%
#107000
0%
#108000
1%
#109000
0%
#110000
1%
#111000
0%
#112000
1%
#113000
0%
#114000
1%
#115000
0%
#116000
1%
#117000
0%
#118000
1%
#119000
0%
#120000
1%
#121000
0%
#122000
1%
#123000
0%
#124000
1%
#125000
0%
#126000
1%
#127000
0%
#128000
b0 3
1%
b0 '
b0 .
1,
#129000
0%
#130000
b0 4
1%
#131000
0%
0(
0+
#132000
b0 5
0C
06
1%
#133000
0%
#134000
0D
07
1%
#135000
0%
#136000
0E
1?
1%
#137000
0%
#138000
1!
0?
1%
#139000
0%
#140000
0!
1C
16
1%
1(
1+
#141000
0%
#142000
1D
17
b11 3
1%
b11 '
b11 .
#143000
0%
#144000
1E
b11 4
1%
#145000
0%
#146000
b11 5
1%
#147000
0%
#148000
b0 3
b1 0
1%
b0 '
b0 .
b100000000000000000000000 &
b100000000000000000000000 -
#149000
0%
#150000
b0 4
b1 1
1%
#151000
0%
0(
0+
#152000
b1 2
b0 5
0C
06
1%
#153000
0%
#154000
0D
07
1%
#155000
0%
#156000
0E
b1 ;
1?
1%
#157000
0%
#158000
1!
b1 $
b1 :
0?
1%
#159000
0%
#160000
0!
1C
16
1%
1(
1+
#161000
0%
#162000
1D
17
b11 3
1%
b11 '
b11 .
#163000
0%
#164000
1E
b11 4
1%
#165000
0%
#166000
b11 5
1%
