bat/emif_intf_z_testbench.vcd
$date
	Thu Nov 29 14:01:33 2018
$end
$version
	Icarus Verilog
$end
$timescale
	1ps
$end
$scope module emif_intf_z_testbench $end
$var wire 16 ! emif_data_z [15:0] $end
$var reg 1 " clk $end
$var reg 24 # emif_addr_i [23:0] $end
$var reg 2 $ emif_byten_i [1:0] $end
$var reg 1 % emif_cen_i $end
$var reg 1 & emif_oen_i $end
$var reg 1 ' emif_wen_i $end
$var reg 1 ( rst_n $end
$scope module u_emif_intf_z $end
$var wire 1 " clk_ref $end
$var wire 24 ) emif_addr_i [23:0] $end
$var wire 2 * emif_byten_i [1:0] $end
$var wire 1 % emif_cen_i $end
$var wire 16 + emif_dpram_rdata [15:0] $end
$var wire 1 , emif_dpram_ren_2 $end
$var wire 1 & emif_oen_i $end
$var wire 1 ' emif_wen_i $end
$var wire 1 ( rst_n $end
$var wire 16 - emif_data_z [15:0] $end
$var reg 24 . emif_addr_d0 [23:0] $end
$var reg 24 / emif_addr_d1 [23:0] $end
$var reg 24 0 emif_addr_d2 [23:0] $end
$var reg 2 1 emif_byten_d0 [1:0] $end
$var reg 2 2 emif_byten_d1 [1:0] $end
$var reg 2 3 emif_byten_d2 [1:0] $end
$var reg 1 4 emif_cen_d0 $end
$var reg 1 5 emif_cen_d1 $end
$var reg 1 6 emif_cen_d2 $end
$var reg 16 7 emif_data_d0 [15:0] $end
$var reg 16 8 emif_data_d1 [15:0] $end
$var reg 24 9 emif_dpram_addr [23:0] $end
$var reg 1 : emif_dpram_ren $end
$var reg 1 ; emif_dpram_ren_d0 $end
$var reg 16 < emif_dpram_wdata [15:0] $end
$var reg 1 = emif_dpram_wen $end
$var reg 1 > emif_oen_d0 $end
$var reg 1 ? emif_oen_d1 $end
$var reg 1 @ emif_oen_d2 $end
$var reg 1 A emif_wen_d0 $end
$var reg 1 B emif_wen_d1 $end
$var reg 1 C emif_wen_d2 $end
$upscope $end
$upscope $end
$enddefinitions $end
#0
$dumpvars
1C
1B
1A
1@
1?
1>
0=
b0 <
0;
0:
b0 9
b0 8
b0 7
16
15
14
b11 3
b11 2
b11 1
b0 0
b0 /
b0 .
bz -
0,
b0 +
bx *
bx )
0(
x'
x&
x%
bx $
bx #
1"
bz !
$end
#1000
0"
#2000
1"
#3000
0"
#4000
1"
#5000
0"
#6000
1"
#7000
0"
#8000
1"
#9000
0"
#10000
1"
#11000
0"
#12000
1"
#13000
0"
#14000
1"
#15000
0"
#16000
1"
#17000
0"
#18000
1"
#19000
0"
#20000
1"
#21000
0"
#22000
1"
#23000
0"
#24000
1"
#25000
0"
#26000
1"
#27000
0"
#28000
1"
#29000
0"
#30000
1"
#31000
0"
#32000
1"
#33000
0"
#34000
1"
#35000
0"
#36000
1"
#37000
0"
#38000
1"
#39000
0"
#40000
1"
#41000
0"
#42000
1"
#43000
0"
#44000
1"
#45000
0"
#46000
1"
#47000
0"
#48000
1"
#49000
0"
#50000
1"
#51000
0"
#52000
1"
#53000
0"
#54000
1"
#55000
0"
#56000
1"
#57000
0"
#58000
1"
#59000
0"
#60000
1"
#61000
0"
#62000
1"
#63000
0"
#64000
1"
#65000
0"
#66000
1"
#67000
0"
#68000
1"
#69000
0"
#70000
1"
#71000
0"
#72000
1"
#73000
0"
#74000
1"
#75000
0"
#76000
1"
#77000
0"
#78000
1"
#79000
0"
#80000
1"
#81000
0"
#82000
1"
#83000
0"
#84000
1"
#85000
0"
#86000
1"
#87000
0"
#88000
1"
#89000
0"
#90000
1"
#91000
0"
#92000
1"
#93000
0"
#94000
1"
#95000
0"
#96000
1"
#97000
0"
#98000
1"
#99000
0"
#100000
1"
#101000
0"
#102000
1"
#103000
0"
#104000
1"
#105000
0"
#106000
1"
#107000
0"
#108000
1"
#109000
0"
#110000
1"
#111000
0"
#112000
1"
#113000
0"
#114000
1"
#115000
0"
#116000
1"
#117000
0"
#118000
1"
#119000
0"
#120000
1"
#121000
0"
#122000
1"
#123000
0"
#124000
1"
#125000
0"
#126000
1"
#127000
0"
#128000
bz 7
1"
1&
1'
1%
b11 $
b11 *
b0 #
b0 )
1(
#129000
0"
#130000
bz 8
1"
#131000
0"
#132000
1"
#133000
0"
#134000
1"
#135000
0"
#136000
1"
#137000
0"
#138000
1"
#139000
0"
#140000
1"
#141000
0"
#142000
1"
#143000
0"
#144000
1"
#145000
0"
#146000
1"
#147000
0"
#148000
1"
#149000
0"
#150000
1"
#151000
0"
#152000
1"
#153000
0"
#154000
1"
#155000
0"
#156000
1"
#157000
0"
#158000
1"
#159000
0"
#160000
1"
#161000
0"
#162000
1"
#163000
0"
#164000
1"
#165000
0"
#166000
1"
#167000
0"
#168000
1"
#169000
0"
#170000
1"
#171000
0"
#172000
1"
#173000
0"
#174000
1"
#175000
0"
#176000
1"
#177000
0"
#178000
1"
#179000
0"
#180000
1"
#181000
0"
#182000
1"
#183000
0"
#184000
1"
#185000
0"
#186000
1"
#187000
0"
#188000
1"
#189000
0"
#190000
1"
#191000
0"
#192000
1"
#193000
0"
#194000
1"
#195000
0"
#196000
1"
#197000
0"
#198000
1"
#199000
0"
#200000
1"
#201000
0"
#202000
1"
#203000
0"
#204000
1"
#205000
0"
#206000
1"
#207000
0"
#208000
1"
#209000
0"
#210000
1"
#211000
0"
#212000
1"
#213000
0"
#214000
1"
#215000
0"
#216000
1"
#217000
0"
#218000
1"
#219000
0"
#220000
1"
#221000
0"
#222000
1"
#223000
0"
#224000
1"
#225000
0"
#226000
1"
#227000
0"
#228000
b0 1
1"
b0 $
b0 *
#229000
0"
#230000
b0 2
1"
#231000
0"
0'
0%
#232000
b0 3
0A
04
1"
#233000
0"
#234000
0B
05
1"
#235000
0"
#236000
06
0C
1"
#237000
0"
#238000
1"
#239000
0"
#240000
1A
14
1"
1'
1%
#241000
0"
b11 $
b11 *
#242000
1B
15
b11 1
1"
#243000
0"
#244000
16
1C
b11 2
bz <
1=
1"
#245000
0"
#246000
0=
b11 3
1"
#247000
0"
b0 $
b0 *
b100000000000000000000000 #
b100000000000000000000000 )
#248000
b0 1
b1 .
1"
#249000
0"
#250000
b0 2
b1 /
0A
04
1"
0'
0%
#251000
0"
#252000
b1 0
b0 3
0B
05
1"
#253000
0"
#254000
06
0C
1"
#255000
0"
#256000
1"
#257000
0"
#258000
1"
#259000
0"
1'
1%
#260000
1A
14
b11 1
1"
b11 $
b11 *
#261000
0"
#262000
1B
15
b11 2
1"
#263000
0"
#264000
b11 3
16
1C
b1 9
1=
1"
#265000
0"
#266000
0=
1"
